---
http_interactions:
- request:
    method: post
    uri: http://api.flickr.com/services/rest/
    body:
      encoding: US-ASCII
      string: method=flickr.photos.getRecent&format=json&nojsoncallback=1
    headers:
      Accept-Encoding:
      - gzip;q=1.0,deflate;q=0.6,identity;q=0.3
      Accept:
      - '*/*'
      User-Agent:
      - FlickRaw/0.9.6
      Authorization:
      - OAuth realm="http://api.flickr.com/services/rest/", oauth_consumer_key="6e52efbe8e7085e20a60ff5a38c2b5c0",
        oauth_nonce="WK9IreJON6tvwN4WID70zfjJeYoX%2FCvDT1pdxUrmmRE%3D", oauth_signature="Au4AlSLRvfS7MhsMNh9JZyPwL6E%3D",
        oauth_signature_method="HMAC-SHA1", oauth_timestamp="1377601816", oauth_token="",
        oauth_version="1.0"
      Content-Type:
      - application/x-www-form-urlencoded
  response:
    status:
      code: 200
      message: OK
    headers:
      Cache-Control:
      - private
      Content-Length:
      - '4058'
      Content-Type:
      - application/json
      Date:
      - Tue, 27 Aug 2013 11:08:44 GMT
      P3p:
      - policyref="http://info.yahoo.com/w3c/p3p.xml", CP="CAO DSP COR CUR ADM DEV
        TAI PSA PSD IVAi IVDi CONi TELo OTPi OUR DELi SAMi OTRi UNRi PUBi IND PHY
        ONL UNI PUR FIN COM NAV INT DEM CNT STA POL HEA PRE LOC GOV"
      Server:
      - YTS/1.20.20
      Set-Cookie:
      - xb=171322; expires=Fri, 28-Aug-2015 11:08:45 GMT; path=/; domain=.flickr.com
      Vary:
      - Accept-Encoding
      X-Served-By:
      - www107.flickr.mud.yahoo.com
      Age:
      - '3'
      X-Cache:
      - MISS from Mohsin
      X-Cache-Lookup:
      - MISS from Mohsin:3128
      Via:
      - HTTP/1.1 r38.ycpi.mud.yahoo.net UserFiberFramework/1.0, HTTP/1.1 r22.ycpi.ams.yahoo.net
        UserFiberFramework/1.0, HTTP/1.1 r2.ycpi.aea.yahoo.net (YahooTrafficServer/1.20.20
        [cMsSf ]), 1.0 Mohsin:3128 (squid)
      Connection:
      - close
    body:
      encoding: UTF-8
      string: '{"photos":{"page":1, "pages":10, "perpage":100, "total":1000, "photo":[{"id":"9604338679",
        "owner":"69562542@N04", "secret":"9354208255", "server":"7349", "farm":8,
        "title":"canyon 3-13-1-22", "ispublic":1, "isfriend":0, "isfamily":0}, {"id":"9604338861",
        "owner":"25580087@N06", "secret":"0eabf34ac2", "server":"2824", "farm":3,
        "title":"P1030950", "ispublic":1, "isfriend":0, "isfamily":0}, {"id":"9604338921",
        "owner":"21891198@N03", "secret":"6fd4cb9ba4", "server":"7302", "farm":8,
        "title":"DSC06351", "ispublic":1, "isfriend":0, "isfamily":0}, {"id":"9604338973",
        "owner":"7709911@N07", "secret":"c11a198628", "server":"3808", "farm":4, "title":"P8080039-OV3-mod",
        "ispublic":1, "isfriend":0, "isfamily":0}, {"id":"9604339113", "owner":"81426852@N07",
        "secret":"e7da03f394", "server":"7383", "farm":8, "title":"July 14, 2013",
        "ispublic":1, "isfriend":0, "isfamily":0}, {"id":"9604339153", "owner":"71144572@N00",
        "secret":"6389d80a3d", "server":"7348", "farm":8, "title":"2013 1474 L\u00fcterswil
        SO 25.8.2013 DSC06192", "ispublic":1, "isfriend":0, "isfamily":0}, {"id":"9604339191",
        "owner":"35114850@N08", "secret":"e42e80d54b", "server":"2868", "farm":3,
        "title":"238 KVV 238V  Leyland Leopard Willowbrook 003 Express. READING Bus
        Station", "ispublic":1, "isfriend":0, "isfamily":0}, {"id":"9604339263", "owner":"45188690@N05",
        "secret":"76e13ec8d2", "server":"3778", "farm":4, "title":"", "ispublic":1,
        "isfriend":0, "isfamily":0}, {"id":"9604339265", "owner":"9841811@N06", "secret":"da9b19cd0b",
        "server":"7431", "farm":8, "title":"IMG_1248.JPG", "ispublic":1, "isfriend":0,
        "isfamily":0}, {"id":"9604339297", "owner":"51762477@N03", "secret":"d69b1ce05a",
        "server":"5488", "farm":6, "title":"", "ispublic":1, "isfriend":0, "isfamily":0},
        {"id":"9604339317", "owner":"29044438@N02", "secret":"dd1a71169e", "server":"5441",
        "farm":6, "title":"#classic #car in #cavalese #instacar #volkswagen #bully
        #glory #oldtimes", "ispublic":1, "isfriend":0, "isfamily":0}, {"id":"9604339319",
        "owner":"94429065@N04", "secret":"95aac0d454", "server":"5489", "farm":6,
        "title":"Kiel - Arboretum", "ispublic":1, "isfriend":0, "isfamily":0}, {"id":"9604339497",
        "owner":"59411395@N00", "secret":"f579508c29", "server":"7301", "farm":8,
        "title":"upload", "ispublic":1, "isfriend":0, "isfamily":0}, {"id":"9604339583",
        "owner":"61020194@N04", "secret":"66bb6e5363", "server":"2859", "farm":3,
        "title":"130927_BPM-Schulungen.jpg", "ispublic":1, "isfriend":0, "isfamily":0},
        {"id":"9604339673", "owner":"49411071@N00", "secret":"293a6d2b63", "server":"7383",
        "farm":8, "title":"Last Import-47", "ispublic":1, "isfriend":0, "isfamily":0},
        {"id":"9604339823", "owner":"99143941@N05", "secret":"96ac70c948", "server":"3695",
        "farm":4, "title":"861859", "ispublic":1, "isfriend":0, "isfamily":0}, {"id":"9604339883",
        "owner":"99111796@N02", "secret":"485c367669", "server":"2855", "farm":3,
        "title":"Painted with the PixieDust App", "ispublic":1, "isfriend":0, "isfamily":0},
        {"id":"9604339965", "owner":"68032571@N03", "secret":"1d14dd683b", "server":"7306",
        "farm":8, "title":"IMG_0433", "ispublic":1, "isfriend":0, "isfamily":0}, {"id":"9604339997",
        "owner":"76472478@N02", "secret":"88af43ae2c", "server":"7297", "farm":8,
        "title":"Drive alice to uluru", "ispublic":1, "isfriend":0, "isfamily":0},
        {"id":"9604340025", "owner":"100869331@N08", "secret":"bb83e4a494", "server":"5340",
        "farm":6, "title":"clavellinas", "ispublic":1, "isfriend":0, "isfamily":0},
        {"id":"9604340049", "owner":"91977548@N02", "secret":"28215e5993", "server":"5326",
        "farm":6, "title":"Between", "ispublic":1, "isfriend":0, "isfamily":0}, {"id":"9604340145",
        "owner":"21503413@N03", "secret":"ec9319f1c4", "server":"3763", "farm":4,
        "title":"IMG 5287", "ispublic":1, "isfriend":0, "isfamily":0}, {"id":"9604340155",
        "owner":"96162621@N08", "secret":"a5b26950ec", "server":"5522", "farm":6,
        "title":"upload", "ispublic":1, "isfriend":0, "isfamily":0}, {"id":"9604340161",
        "owner":"95720391@N04", "secret":"7d17f67205", "server":"5333", "farm":6,
        "title":"Azoren 2013_059.jpg", "ispublic":1, "isfriend":0, "isfamily":0},
        {"id":"9604340165", "owner":"98070746@N04", "secret":"1f57a0710d", "server":"2880",
        "farm":3, "title":"Sisters''", "ispublic":1, "isfriend":0, "isfamily":0},
        {"id":"9604340173", "owner":"53490213@N04", "secret":"e9234bd4fa", "server":"5456",
        "farm":6, "title":"Lehigh Valley Airshow 2031 001", "ispublic":1, "isfriend":0,
        "isfamily":0}, {"id":"9604340217", "owner":"30837068@N05", "secret":"11c4ce77d0",
        "server":"2828", "farm":3, "title":"DSC_5522", "ispublic":1, "isfriend":0,
        "isfamily":0}, {"id":"9604340229", "owner":"99809345@N04", "secret":"1c91e6114b",
        "server":"2834", "farm":3, "title":"#friends #fashion #likes #love #girls
        #beauty #beautiful #instagood", "ispublic":1, "isfriend":0, "isfamily":0},
        {"id":"9604340247", "owner":"51188012@N00", "secret":"8640878bd7", "server":"7404",
        "farm":8, "title":"Sydney 2013", "ispublic":1, "isfriend":0, "isfamily":0},
        {"id":"9604340253", "owner":"91673637@N00", "secret":"99901698dc", "server":"3777",
        "farm":4, "title":"Dunn Family - Home Studio - 27-08-13-19", "ispublic":1,
        "isfriend":0, "isfamily":0}, {"id":"9604340331", "owner":"78116740@N03", "secret":"0dbfaefdc0",
        "server":"2805", "farm":3, "title":"IMG_7080.jpg", "ispublic":1, "isfriend":0,
        "isfamily":0}, {"id":"9604340363", "owner":"33493812@N03", "secret":"840d0d5973",
        "server":"7312", "farm":8, "title":"Hydranger \u2013 DPP_0158abc", "ispublic":1,
        "isfriend":0, "isfamily":0}, {"id":"9604340365", "owner":"40771019@N00", "secret":"3e6dbfb895",
        "server":"2842", "farm":3, "title":"16th Aug144", "ispublic":1, "isfriend":0,
        "isfamily":0}, {"id":"9604340381", "owner":"52060784@N02", "secret":"58f02535a7",
        "server":"7351", "farm":8, "title":"800_9645.jpg", "ispublic":1, "isfriend":0,
        "isfamily":0}, {"id":"9604340411", "owner":"21036110@N03", "secret":"f33c552e33",
        "server":"5507", "farm":6, "title":"Today''s double latte.", "ispublic":1,
        "isfriend":0, "isfamily":0}, {"id":"9604340419", "owner":"63057502@N05", "secret":"301a178b11",
        "server":"7368", "farm":8, "title":"Thanks @hot_tattoos4life  for sharing
        my work! Check this page! They normally post lots of tattooed models and tattoos  @hot_tattoos4life",
        "ispublic":1, "isfriend":0, "isfamily":0}, {"id":"9604340489", "owner":"68864268@N04",
        "secret":"49519127bd", "server":"3745", "farm":4, "title":"Ibiza2013", "ispublic":1,
        "isfriend":0, "isfamily":0}, {"id":"9604340493", "owner":"73900319@N02", "secret":"8d4183d233",
        "server":"5531", "farm":6, "title":"IMG_1543", "ispublic":1, "isfriend":0,
        "isfamily":0}, {"id":"9604340551", "owner":"96042712@N04", "secret":"852c117e1d",
        "server":"7362", "farm":8, "title":"_MG_8057", "ispublic":1, "isfriend":0,
        "isfamily":0}, {"id":"9604340559", "owner":"95001065@N03", "secret":"563d8c89d3",
        "server":"2870", "farm":3, "title":"IMG_2882.JPG", "ispublic":1, "isfriend":0,
        "isfamily":0}, {"id":"9604340703", "owner":"58417144@N02", "secret":"1456dd4510",
        "server":"5348", "farm":6, "title":"Center-Cider-Makerflkr", "ispublic":1,
        "isfriend":0, "isfamily":0}, {"id":"9604340719", "owner":"99792501@N02", "secret":"fe91fd5900",
        "server":"7358", "farm":8, "title":"IMG_1571", "ispublic":1, "isfriend":0,
        "isfamily":0}, {"id":"9604340731", "owner":"37471542@N04", "secret":"0030d414c8",
        "server":"7449", "farm":8, "title":"DSC_1043.jpg", "ispublic":1, "isfriend":0,
        "isfamily":0}, {"id":"9604340743", "owner":"30070436@N08", "secret":"d24a4703be",
        "server":"5520", "farm":6, "title":"the doubt", "ispublic":1, "isfriend":0,
        "isfamily":0}, {"id":"9604340755", "owner":"55088592@N04", "secret":"972e34c2a3",
        "server":"3814", "farm":4, "title":"\"Calligraphie\" by Lady Alezia + Zepha",
        "ispublic":1, "isfriend":0, "isfamily":0}, {"id":"9604340773", "owner":"87933002@N03",
        "secret":"56fd5ceeb0", "server":"7299", "farm":8, "title":"Carla - 0320_203410.jpg",
        "ispublic":1, "isfriend":0, "isfamily":0}, {"id":"9604340775", "owner":"30541672@N03",
        "secret":"04ba41e5d9", "server":"7309", "farm":8, "title":"DSC_3375", "ispublic":1,
        "isfriend":0, "isfamily":0}, {"id":"9604340777", "owner":"98216376@N00", "secret":"fefa80b706",
        "server":"7283", "farm":8, "title":"Filmrol-25", "ispublic":1, "isfriend":0,
        "isfamily":0}, {"id":"9604340805", "owner":"24917258@N05", "secret":"d5b610e0ff",
        "server":"3769", "farm":4, "title":"IMG_8328", "ispublic":1, "isfriend":0,
        "isfamily":0}, {"id":"9604341081", "owner":"100795154@N07", "secret":"d456eeef9b",
        "server":"5538", "farm":6, "title":"BloodRayne_by_Candra", "ispublic":1, "isfriend":0,
        "isfamily":0}, {"id":"9607574584", "owner":"71696780@N00", "secret":"11810ce100",
        "server":"5449", "farm":6, "title":"Day 3 - Otter & Owls (59)", "ispublic":1,
        "isfriend":0, "isfamily":0}, {"id":"9607574634", "owner":"29557658@N08", "secret":"f1748d12da",
        "server":"7352", "farm":8, "title":"DSC08769", "ispublic":1, "isfriend":0,
        "isfamily":0}, {"id":"9607574740", "owner":"66716820@N03", "secret":"b5604d0d6e",
        "server":"3688", "farm":4, "title":"IMG_3851", "ispublic":1, "isfriend":0,
        "isfamily":0}, {"id":"9607574976", "owner":"16013799@N00", "secret":"f8c2792ded",
        "server":"5520", "farm":6, "title":"White Horse", "ispublic":1, "isfriend":0,
        "isfamily":0}, {"id":"9607575044", "owner":"14743093@N07", "secret":"c62dca80d9",
        "server":"5448", "farm":6, "title":"MRF", "ispublic":1, "isfriend":0, "isfamily":0},
        {"id":"9607575086", "owner":"85197441@N08", "secret":"dcb6acbb36", "server":"3734",
        "farm":4, "title":"#gshit #realtalk #truestory #rns", "ispublic":1, "isfriend":0,
        "isfamily":0}, {"id":"9607575098", "owner":"91904844@N04", "secret":"b2743b963e",
        "server":"3728", "farm":4, "title":"#instaplace #instaplaceapp #place #earth
        #world  #spain #ES #toledo  #day", "ispublic":1, "isfriend":0, "isfamily":0},
        {"id":"9607575104", "owner":"9531014@N04", "secret":"80f4169cf6", "server":"5478",
        "farm":6, "title":"_DSC1798.jpg", "ispublic":1, "isfriend":0, "isfamily":0},
        {"id":"9607575144", "owner":"19406303@N00", "secret":"8706e1edc3", "server":"3703",
        "farm":4, "title":"IMG_0367", "ispublic":1, "isfriend":0, "isfamily":0}, {"id":"9607575284",
        "owner":"35696618@N08", "secret":"2a35acf684", "server":"3716", "farm":4,
        "title":"\u0e40\u0e14\u0e47\u0e01\u0e2b\u0e0d\u0e34\u0e07\u0e1b\u0e34\u0e22\u0e30\u0e21\u0e32\u0e28",
        "ispublic":1, "isfriend":0, "isfamily":0}, {"id":"9607575300", "owner":"64288543@N00",
        "secret":"c260768e94", "server":"5538", "farm":6, "title":"upload", "ispublic":1,
        "isfriend":0, "isfamily":0}, {"id":"9607575320", "owner":"57847263@N02", "secret":"6a86c96f5d",
        "server":"7306", "farm":8, "title":"P8250232.jpg", "ispublic":1, "isfriend":0,
        "isfamily":0}, {"id":"9607575340", "owner":"96175935@N05", "secret":"e4735a6068",
        "server":"3761", "farm":4, "title":"19 weeks", "ispublic":1, "isfriend":0,
        "isfamily":0}, {"id":"9607575378", "owner":"57727182@N08", "secret":"3868fcd592",
        "server":"7452", "farm":8, "title":"IMGP1187", "ispublic":1, "isfriend":0,
        "isfamily":0}, {"id":"9607575454", "owner":"96199238@N00", "secret":"ac44ba7fce",
        "server":"5325", "farm":6, "title":"IMG_7058", "ispublic":1, "isfriend":0,
        "isfamily":0}, {"id":"9607575456", "owner":"98994001@N08", "secret":"0b3b8a3e77",
        "server":"2828", "farm":3, "title":"Katy pix 7-114", "ispublic":1, "isfriend":0,
        "isfamily":0}, {"id":"9607575476", "owner":"49291586@N07", "secret":"31480d16b9",
        "server":"5342", "farm":6, "title":"La maison camouflage", "ispublic":1, "isfriend":0,
        "isfamily":0}, {"id":"9607575634", "owner":"32515276@N05", "secret":"15c7478987",
        "server":"5349", "farm":6, "title":"Rockell Blu and 42 Below Vodka..", "ispublic":1,
        "isfriend":0, "isfamily":0}, {"id":"9607575672", "owner":"100170014@N02",
        "secret":"26b16167bf", "server":"2869", "farm":3, "title":"IMG_3114", "ispublic":1,
        "isfriend":0, "isfamily":0}, {"id":"9607575736", "owner":"44234763@N07", "secret":"35f6183de9",
        "server":"2865", "farm":3, "title":"IMG_3361", "ispublic":1, "isfriend":0,
        "isfamily":0}, {"id":"9607575792", "owner":"62505753@N08", "secret":"af76acc2fb",
        "server":"5343", "farm":6, "title":"JS_7624", "ispublic":1, "isfriend":0,
        "isfamily":0}, {"id":"9607575826", "owner":"30178520@N08", "secret":"3b67e2bc36",
        "server":"7298", "farm":8, "title":"", "ispublic":1, "isfriend":0, "isfamily":0},
        {"id":"9607575846", "owner":"95941697@N08", "secret":"8622f40cc4", "server":"5462",
        "farm":6, "title":"Randomshit", "ispublic":1, "isfriend":0, "isfamily":0},
        {"id":"9607575874", "owner":"44594325@N03", "secret":"aeac8f212d", "server":"7317",
        "farm":8, "title":"Aug 2012 500", "ispublic":1, "isfriend":0, "isfamily":0},
        {"id":"9607575934", "owner":"22039433@N04", "secret":"e67520573f", "server":"3774",
        "farm":4, "title":"1020823-6-3\u6703\u54e1\u4ee3\u8868\u5927\u6703-009", "ispublic":1,
        "isfriend":0, "isfamily":0}, {"id":"9607576006", "owner":"27541164@N06", "secret":"f6c0fcdb37",
        "server":"7303", "farm":8, "title":"Foto 239", "ispublic":1, "isfriend":0,
        "isfamily":0}, {"id":"9607576020", "owner":"45148465@N07", "secret":"640551b5ae",
        "server":"2810", "farm":3, "title":"workshop270813-16.jpg", "ispublic":1,
        "isfriend":0, "isfamily":0}, {"id":"9607576104", "owner":"50977435@N00", "secret":"b649c5caa2",
        "server":"5331", "farm":6, "title":"P1000532", "ispublic":1, "isfriend":0,
        "isfamily":0}, {"id":"9607576114", "owner":"68575105@N00", "secret":"4af580f631",
        "server":"5487", "farm":6, "title":"Spanje IPhone photos", "ispublic":1, "isfriend":0,
        "isfamily":0}, {"id":"9607576136", "owner":"73333237@N00", "secret":"9de4721a40",
        "server":"7318", "farm":8, "title":"Bright cloud within the blue sky", "ispublic":1,
        "isfriend":0, "isfamily":0}, {"id":"9607576150", "owner":"96940412@N05", "secret":"b53f2e4c69",
        "server":"7436", "farm":8, "title":"DSC00144", "ispublic":1, "isfriend":0,
        "isfamily":0}, {"id":"9607576198", "owner":"99328199@N07", "secret":"dce53f2301",
        "server":"3686", "farm":4, "title":"861861", "ispublic":1, "isfriend":0, "isfamily":0},
        {"id":"9607576210", "owner":"12314525@N08", "secret":"6373d9a542", "server":"2827",
        "farm":3, "title":"IMG_3138-2", "ispublic":1, "isfriend":0, "isfamily":0},
        {"id":"9607576214", "owner":"92725254@N07", "secret":"d0fc124985", "server":"5486",
        "farm":6, "title":"IMG_7277.jpg", "ispublic":1, "isfriend":0, "isfamily":0},
        {"id":"9607576256", "owner":"97648238@N00", "secret":"8521a4086a", "server":"5459",
        "farm":6, "title":"drsketchys2-17 (238 of 668).jpg", "ispublic":1, "isfriend":0,
        "isfamily":0}, {"id":"9607576336", "owner":"98096083@N00", "secret":"b943323eed",
        "server":"3798", "farm":4, "title":"\u8292\u679c\u8d77\u53f8\u86cb\u7cd5",
        "ispublic":1, "isfriend":0, "isfamily":0}, {"id":"9607576472", "owner":"53007515@N08",
        "secret":"098edabd22", "server":"7449", "farm":8, "title":"Space pirates",
        "ispublic":1, "isfriend":0, "isfamily":0}, {"id":"9607576478", "owner":"43264847@N07",
        "secret":"6f0512952d", "server":"7428", "farm":8, "title":"121206 - 1979.jpg",
        "ispublic":1, "isfriend":0, "isfamily":0}, {"id":"9607576522", "owner":"42593605@N00",
        "secret":"71f91f4eca", "server":"3666", "farm":4, "title":"N\u00e5t f\u00f6r
        alla 5:2or", "ispublic":1, "isfriend":0, "isfamily":0}, {"id":"9607576546",
        "owner":"97399979@N02", "secret":"455af5d422", "server":"2865", "farm":3,
        "title":"P1000822", "ispublic":1, "isfriend":0, "isfamily":0}, {"id":"9607576552",
        "owner":"95812584@N07", "secret":"760c9d8a4e", "server":"3708", "farm":4,
        "title":"GARETHS CORNWALL PICS 29-09-2008 20-51-027", "ispublic":1, "isfriend":0,
        "isfamily":0}, {"id":"9607576572", "owner":"40084434@N07", "secret":"f95c8f120f",
        "server":"2883", "farm":3, "title":"", "ispublic":1, "isfriend":0, "isfamily":0},
        {"id":"9607576604", "owner":"90500908@N02", "secret":"2946072cb0", "server":"7362",
        "farm":8, "title":"upload", "ispublic":1, "isfriend":0, "isfamily":0}, {"id":"9607576640",
        "owner":"47881956@N04", "secret":"361219cb49", "server":"3817", "farm":4,
        "title":"IMAG0959", "ispublic":1, "isfriend":0, "isfamily":0}, {"id":"9607576664",
        "owner":"71325415@N02", "secret":"287649a144", "server":"7416", "farm":8,
        "title":"Oulton Park Gold Cup 2013", "ispublic":1, "isfriend":0, "isfamily":0},
        {"id":"9607576730", "owner":"99431276@N06", "secret":"17e261d7b8", "server":"7310",
        "farm":8, "title":"HPIM2762", "ispublic":1, "isfriend":0, "isfamily":0}, {"id":"9607576758",
        "owner":"95975844@N03", "secret":"19cbb74f05", "server":"7434", "farm":8,
        "title":"19082011822", "ispublic":1, "isfriend":0, "isfamily":0}, {"id":"9607576814",
        "owner":"100819043@N07", "secret":"2725a67ef0", "server":"3792", "farm":4,
        "title":"\u871c\u6708\u74b0\u5cf6\u556a\u556a\u9020\uff01", "ispublic":1,
        "isfriend":0, "isfamily":0}, {"id":"9607576828", "owner":"71222917@N05", "secret":"672cea6466",
        "server":"7409", "farm":8, "title":"#estiu #costabrava", "ispublic":1, "isfriend":0,
        "isfamily":0}, {"id":"9607576924", "owner":"82121282@N06", "secret":"33cf55b0e0",
        "server":"3831", "farm":4, "title":"IMG_0077", "ispublic":1, "isfriend":0,
        "isfamily":0}]}, "stat":"ok"}'
    http_version: 
  recorded_at: Tue, 27 Aug 2013 11:10:18 GMT
recorded_with: VCR 2.5.0
